{
    "Version": "2012-10-17",
    "Statement": [
        {
            "Sid": "GeneralAllow",
            "Effect": "Allow",
            "Action": "apigateway:*",
            "Resource": "arn:aws:apigateway:*::*"
        },
        {
            "Sid": "DenyOnAnyAPIGWResourceWithInvalidPrincipalTag",
            "Effect": "Deny",
            "Action": [
                "apigateway:*"
            ],
            "Resource": [
                "arn:aws:apigateway:*::*"
            ],
            "Condition": {
                "StringNotEquals": {
                    "aws:ResourceTag/application_id": "${aws:PrincipalTag/application_id}"
                }
            }
        }
    ]
}