{
    "Version": "2012-10-17",
    "Statement": [
        {
            "Sid": "CreateSecretOnValidApplicationId",
            "Effect": "Allow",
            "Action": [
                "secretsmanager:CreateSecret"
            ],
            "Resource": "*",
            "Condition": {
                "StringEquals": {
                    "aws:RequestTag/application_id": "${aws:PrincipalTag/application_id}" 
                }
            }
        },
        {
            "Sid": "AllowSecretResources",
            "Effect": "Allow",
            "Action": [
                "secretsmanager:CancelRotateSecret",
                "secretsmanager:DeleteResourcePolicy",
                "secretsmanager:DeleteSecret",
                "secretsmanager:DescribeSecret",
                "secretsmanager:GetResourcePolicy",
                "secretsmanager:GetSecretValue",
                "secretsmanager:ListSecretVersionIds",
                "secretsmanager:PutResourcePolicy",
                "secretsmanager:PutSecretValue",
                "secretsmanager:RestoreSecret",
                "secretsmanager:RotateSecret",
                "secretsmanager:UntagResource",
                "secretsmanager:UpdateSecret",
                "secretsmanager:UpdateSecretVersionStage"
            ],
            "Resource": "arn:aws:secretsmanager:*:*:secret:*",
            "Condition": {
                "StringEquals": {
                    "secretsmanager:ResourceTag/application_id": "${aws:PrincipalTag/application_id}"
                }
            }
        },
        {
            "Sid": "GeneralAllow",
            "Effect": "Allow",
            "Action": [
                "secretsmanager:GetRandomPassword",
                "secretsmanager:ListSecrets",
                "secretsmanager:TagResource"
            ],
            "Resource": "*"
        },
        {
            "Sid": "DenyTagChangeOnApplicationId",
            "Effect": "Deny",
            "Action": [
                "secretsmanager:TagResource",
                "secretsmanager:UntagResource"
            ],
            "Resource": "arn:aws:secretsmanager:*:*:secret:*",
            "Condition": {
                "StringNotEquals": {
                    "secretsmanager:ResourceTag/application_id": "${aws:PrincipalTag/application_id}"
                }
            }
        }
    ]
}